lab-6-student
…
4. Let’s consider the median household income of each region, and how that income has changed over time. Create a table with ten rows, one for each region, and two columns, one for 2008 and one for 2018. The cells should contain the median of the median household income (expressed in 2018 dollars) of the region and the study_year. Arrange the rows by 2018 values.

income_by_region <- ca_childcare %>%
  filter(study_year %in% c(2008, 2018)) %>%
  group_by(region, study_year) %>%
  summarise(median_income = median(mhi_2018, na.rm = TRUE), .groups = "drop") %>%
  pivot_wider(names_from = study_year, values_from = median_income) %>%
  arrange(`2018`)

income_by_region

# A tibble: 23 × 3
   region                      `2008` `2018`
   <fct>                        <dbl>  <dbl>
 1 Superior California         47198. 47760 
 2 Mariposa                    53295. 51199 
 3 Southern San Joaquin Valley 53408. 52479 
 4 Yuba                        52586. 52624 
 5 Inyo                        50424. 52874 
 6 Northern San Joaquin Valley 52676. 52884 
 7 Tuolumne                    54586. 56493 
 8 Sutter                      60381. 56955 
 9 Calaveras                   66358. 58151 
10 San Diego-Imperial          58201. 60344.
# ℹ 13 more rows
…
